[
    {
        "id": 12345,
        "description": "PHP Developer",
        "link": "#jobs/12345",
        "mails": 6,
        "resumes": 3,
        "applicant": 6,
        "status": {
            "title": "Active",
            "style": "label-success"
        },
        "content": "Donec ullamcorper dictum urna, at hendrerit lectus rutrum at",
        "salary": {
            "lowercap": 3,
            "uppercap": 5,
            "unit": "lk"
        },
        "date": {
            "month": 4,
            "year": 2012,
            "day": 21
        },
        "resources": {
            "mail": "#mail/2",
            "resume": "#resume/2",
            "applicant": "#applicant/2"
        }
    },
    {
        "id": 43125,
        "description": "Node Developer",
        "link": "#jobs/45125",
        "mails": 12,
        "resumes": 2,
        "applicant": 10,
        "status": {
            "title": "Completed",
            "style": "label-important"
        },
        "content": "Donec ullamcorper dictum urna, at hendrerit lectus rutrum at",
        "salary": {
            "lowercap": 12,
            "uppercap": 15,
            "unit": "lk",
            "style": "label-warning"
        },
        "date": {
            "month": 3,
            "year": 2012,
            "day": 23
        },
        "resources": {
            "mail": "#mail/1",
            "resume": "#resume/1",
            "applicant": "#applicant/1"
        }
    }
]
