{
    "id" : 291392,
    "title" : "Technical Dud",
    "applied" : 1,
    "applications" : [{
        "id" : "vishwas-sharma"
        "name" : "Vishwas Sharma",
        "description" : "somethign about him",
        "interviewed" : false,
    },{
        "id" : "ravi-soni",
        "name" : "Ravi Soni",
        "description" : "something about him too",
        "interviewed" : false
    }]
}
