[
    {
        "id": 21,
        "name": "Quantitative Trading Associate - IIT (2-5 yrs)",
        "ntags": 3,
        "mails": 6,
        "resumes": 3,
        "applicant": 6,
        "tags": [
            "Trading",
            "Quant",
            "Analysis"
        ],
        "status": {
            "title": "Active",
            "style": "label-success"
        },
        "meta": {
            "written": "MBA Jobs on Sunday, 17 June 2012",
            "posted_in": "Banking & Finance Jobs",
            "location": "Mumbai",
            "salary": {
                "lowercap": 3,
                "uppercap": 6,
                "units": "lks"
            },
            "date": {
                "month": 4,
                "year": 2012,
                "day": 21
            }
        },
        "resources": {
            "mail": "#mail/{{id}}/new",
            "resume": "#resume/{{id}}/new",
            "applicant": "#applicant/{{id}}/new"
        },
        "description": "Lorem ipsum dolor sit amet, condimentum pulvinar lacinia ac aliquam, natoque wisi feugiat dictum, nibh odio elit magna. Quis mauris. Convallis auctor quis. Aliquam pretium interdum vulputate, mollis pretium, ac ultricies litora luctus, facilisis non quis in massa, justo quasi.",
        "napplied": 5,
        "applied": [
            {
                "name": "Amit Singh",
                "resources": {
                    "image": "http://placehold.it/20X20",
                    "resume": "#resume/32033044"
                }
            },
            {
                "name": "Arvinder Singh",
                "resources": {
                    "image": "http://placehold.it/20X20",
                    "resume": "#resume/545869"
                }
            },
            {
                "name": "Gaurav Jha",
                "resources": {
                    "image": "http://placehold.it/20X20",
                    "resume": "#resume/3903409"
                }
            },
            {
                "name": "Amit Sharma",
                "resources": {
                    "image": "http://placehold.it/20X20",
                    "resume": "#resume/3093430"
                }
            },
            {
                "name": "Ankit Goyal",
                "resources": {
                    "image": "http://placehold.it/20X20",
                    "resume": "#resume/49309403"
                }
            }
        ]
    },
    {
        "id": 22,
        "name": "Something else - IIT (2-5 yrs)",
        "ntags": 3,
        "mails": 6,
        "resumes": 3,
        "applicant": 6,
        "tags": [
            "Trading",
            "Quant",
            "Analysis"
        ],
        "status": {
            "title": "Active",
            "style": "label-success"
        },
        "meta": {
            "written": "MBA Jobs on Sunday, 17 June 2012",
            "posted_in": "Banking & Finance Jobs",
            "jobCode": "59829",
            "location": "Mumbai",
            "salary": {
                "lowercap": 3,
                "uppercap": 6,
                "units": "lks"
            },
            "date": {
                "month": 4,
                "year": 2012,
                "day": 21
            }
        },
        "resources": {
            "mail": "#mail/{{id}}/new",
            "resume": "#resume/{{id}}/new",
            "applicant": "#applicant/{{id}}/new"
        },
        "description": "Lorem ipsum dolor sit amet, condimentum pulvinar lacinia ac aliquam, natoque wisi feugiat dictum, nibh odio elit magna. Quis mauris. Convallis auctor quis. Aliquam pretium interdum vulputate, mollis pretium, ac ultricies litora luctus, facilisis non quis in massa, justo quasi.",
        "napplied": 5,
        "applied": [
            {
                "name": "Amit Singh",
                "resources": {
                    "image": "http://placehold.it/20X20",
                    "resume": "#resume/32033044"
                }
            },
            {
                "name": "Arvinder Singh",
                "resources": {
                    "image": "http://placehold.it/20X20",
                    "resume": "#resume/545869"
                }
            },
            {
                "name": "Gaurav Jha",
                "resources": {
                    "image": "http://placehold.it/20X20",
                    "resume": "#resume/3903409"
                }
            },
            {
                "name": "Amit Sharma",
                "resources": {
                    "image": "http://placehold.it/20X20",
                    "resume": "#resume/3093430"
                }
            },
            {
                "name": "Ankit Goyal",
                "resources": {
                    "image": "http://placehold.it/20X20",
                    "resume": "#resume/49309403"
                }
            }
        ]
    }
]
