{
	"id" : 21,
	"name" : "Vishwas Sharma",
	"tags" : ["Trading", "Security"],
	"pages" : 2,
  "pageheight":  908,
  "description" : "This would be some description about myself and some other data which would contain majority of your time and money .. etc .. etc.. ",
	"resources"	 : {
		"resume" : "/images/700x/resume_{{pagenumber}}.png"
	},
	"annotations" : [{
		"page" : 1,
		"title" : "Helpful application for hightlighting",
		"image" : {
			"top" : 343,
			"left" : 55,
			"width" : 600,
			"height" : 60
		},
		"notes" : "a quick brown fox jumps over the lazy dog"
		},{
		"page" : 2,
		"title" : "This could very well be second candidate",
		"image" : {
			"top" : 123,
			"left" : 50,
			"width" : 600,
			"height" : 40
		},
		"notes" : "I have some bad feeling about him he could be working with army"
		}]
}
